%YAML 1.1
%TAG !u! tag:unity3d.com,2011:
--- !u!74 &7400000
AnimationClip:
  m_ObjectHideFlags: 0
  m_PrefabParentObject: {fileID: 0}
  m_PrefabInternal: {fileID: 0}
  m_Name: Idle
  serializedVersion: 6
  m_Legacy: 0
  m_Compressed: 0
  m_UseHighQualityCurve: 1
  m_RotationCurves: []
  m_CompressedRotationCurves: []
  m_EulerCurves: []
  m_PositionCurves: []
  m_ScaleCurves: []
  m_FloatCurves: []
  m_PPtrCurves:
  - curve:
    - time: 0
      value: {fileID: 21300000, guid: 33c5bea8f4b535a46aab1ca3606d18a3, type: 3}
    - time: 0.083333336
      value: {fileID: 21300000, guid: 37c0ffde15301ff4e8bef5b1a714c0e7, type: 3}
    - time: 0.16666667
      value: {fileID: 21300000, guid: ffdd8b1694ba8694eb03904dc75dae03, type: 3}
    - time: 0.25
      value: {fileID: 21300000, guid: f5b46ca83e7326544b6696cde3c05574, type: 3}
    - time: 0.33333334
      value: {fileID: 21300000, guid: 72c87b4e9863d7940ac65fe74f6eec2c, type: 3}
    - time: 0.41666666
      value: {fileID: 21300000, guid: d4762915ba4a5564ea294b9411a4e419, type: 3}
    - time: 0.5
      value: {fileID: 21300000, guid: 40cfcd380d9d00148b29dc7c9a0505d2, type: 3}
    - time: 0.5833333
      value: {fileID: 21300000, guid: 94a865d78000ec2448558060ea0ce27f, type: 3}
    - time: 0.6666667
      value: {fileID: 21300000, guid: 32ddd3881c01568499494f484b0b74bf, type: 3}
    - time: 0.75
      value: {fileID: 21300000, guid: c93aa29d13032534cae0fd27d49c2318, type: 3}
    attribute: m_Sprite
    path: 
    classID: 212
    script: {fileID: 0}
  m_SampleRate: 12
  m_WrapMode: 0
  m_Bounds:
    m_Center: {x: 0, y: 0, z: 0}
    m_Extent: {x: 0, y: 0, z: 0}
  m_ClipBindingConstant:
    genericBindings:
    - serializedVersion: 2
      path: 0
      attribute: 0
      script: {fileID: 0}
      typeID: 212
      customType: 23
      isPPtrCurve: 1
    pptrCurveMapping:
    - {fileID: 21300000, guid: 33c5bea8f4b535a46aab1ca3606d18a3, type: 3}
    - {fileID: 21300000, guid: 37c0ffde15301ff4e8bef5b1a714c0e7, type: 3}
    - {fileID: 21300000, guid: ffdd8b1694ba8694eb03904dc75dae03, type: 3}
    - {fileID: 21300000, guid: f5b46ca83e7326544b6696cde3c05574, type: 3}
    - {fileID: 21300000, guid: 72c87b4e9863d7940ac65fe74f6eec2c, type: 3}
    - {fileID: 21300000, guid: d4762915ba4a5564ea294b9411a4e419, type: 3}
    - {fileID: 21300000, guid: 40cfcd380d9d00148b29dc7c9a0505d2, type: 3}
    - {fileID: 21300000, guid: 94a865d78000ec2448558060ea0ce27f, type: 3}
    - {fileID: 21300000, guid: 32ddd3881c01568499494f484b0b74bf, type: 3}
    - {fileID: 21300000, guid: c93aa29d13032534cae0fd27d49c2318, type: 3}
  m_AnimationClipSettings:
    serializedVersion: 2
    m_AdditiveReferencePoseClip: {fileID: 0}
    m_AdditiveReferencePoseTime: 0
    m_StartTime: 0
    m_StopTime: 0.8333333
    m_OrientationOffsetY: 0
    m_Level: 0
    m_CycleOffset: 0
    m_HasAdditiveReferencePose: 0
    m_LoopTime: 1
    m_LoopBlend: 0
    m_LoopBlendOrientation: 0
    m_LoopBlendPositionY: 0
    m_LoopBlendPositionXZ: 0
    m_KeepOriginalOrientation: 0
    m_KeepOriginalPositionY: 1
    m_KeepOriginalPositionXZ: 0
    m_HeightFromFeet: 0
    m_Mirror: 0
  m_EditorCurves: []
  m_EulerEditorCurves: []
  m_HasGenericRootTransform: 0
  m_HasMotionFloatCurves: 0
  m_GenerateMotionCurves: 0
  m_Events: []
